{
  "name" : "List_Locations",
  "platform" : "node",
  "language" : "js",
  "runProcess" : "main",
  "processes" : [{"name":"main","entryNode":"get_locations","exitNode":"_exit","nodes":[{"name":"get_locations","process":"system/MySQL/Select","nodeIsSubProcess":true,"skipped":false,"processParameters":[{"name":"authKey","value":"\"mcc/mysql_config\""},{"name":"db_name","value":""},{"name":"table_name","value":"\"locations\""},{"name":"columns","value":"\"*\""},{"name":"where","value":"\"id is not null\""},{"name":"limit","value":""},{"name":"orderBy","value":""},{"name":"order","value":""}],"nextNodes":["location"],"meta":{"processParamsTypes":{"authKey":"auth"}}},{"name":"location","process":"system/Common/ForEach","nodeIsSubProcess":true,"skipped":false,"processParameters":[{"name":"list","value":"$get_locations.result"},{"name":"index","value":"$location?$location.index:0"}],"nextNodes":["_A_2","_A_1"]},{"skipped":false,"nodeIsSubProcess":false,"nextNodes":["Assign_3"],"name":"_A_2","function":"if (!$location.hasMore) return;","meta":{"skipBreakpoint":true}},{"name":"Assign_3","nodeIsSubProcess":false,"skipped":false,"function":"$cloud_services_array=[]","nextNodes":["cloud_services_list"]},{"name":"cloud_services_list","process":"system/Common/ForEach","nodeIsSubProcess":true,"skipped":false,"processParameters":[{"name":"list","value":"$location.item[\"cloud_services_list\"]"},{"name":"index","value":"$cloud_services_list?$cloud_services_list.index:0"}],"nextNodes":["_A_5","_A_4"]},{"skipped":false,"nodeIsSubProcess":false,"nextNodes":["cloud_services"],"name":"_A_5","function":"if (!$cloud_services_list.hasMore) return;","meta":{"skipBreakpoint":true}},{"name":"cloud_services","process":"system/MySQL/Select","nodeIsSubProcess":true,"skipped":false,"processParameters":[{"name":"authKey","value":"\"mcc/mysql_config\""},{"name":"db_name","value":""},{"name":"table_name","value":"\"cloud_services\""},{"name":"columns","value":"\"id,name\""},{"name":"where","value":"`id='${$cloud_services_list.item}'`"},{"name":"limit","value":""},{"name":"orderBy","value":""},{"name":"order","value":""}],"nextNodes":["_Try_1"],"meta":{"processParamsTypes":{"authKey":"auth"},"breakpoint":{"enabled":true,"isSet":true}}},{"name":"_Try_1","nodeIsSubProcess":false,"function":"","skipped":false,"nextNodes":["_A_9","Try_1"]},{"skipped":false,"nodeIsSubProcess":false,"nextNodes":["ArrayPush_1"],"name":"_A_9","function":"this.moduleAwait('system', 'onError', 'Try_1')"},{"name":"ArrayPush_1","process":"system/Common/ArrayPush","nodeIsSubProcess":true,"skipped":false,"processParameters":[{"name":"array","value":"$cloud_services_array"},{"name":"item","value":"$cloud_services.result[0][\"name\"]"}],"nextNodes":["_A_8"]},{"name":"Try_1","nodeIsSubProcess":false,"function":"return;","nextNodes":["_A_8"]},{"skipped":false,"nodeIsSubProcess":false,"nextNodes":["_A_6"],"name":"_A_8","function":"this.moduleAwait('system', 'onError', null)"},{"skipped":false,"nodeIsSubProcess":false,"nextNodes":["cloud_services_list","_A_4"],"name":"_A_6","function":"$cloud_services_list.index++","meta":{"skipBreakpoint":true}},{"name":"_A_4","nodeIsSubProcess":false,"skipped":false,"function":"if($cloud_services_list.hasMore && !$cloud_services_list.break) return;$cloud_services_list.index=0","nextNodes":["Assign_2"],"meta":{"skipBreakpoint":true}},{"name":"Assign_2","nodeIsSubProcess":false,"skipped":false,"function":"$location.item[\"cloud_providers\"]=$cloud_services_array","nextNodes":["ArrayPush_2"]},{"name":"ArrayPush_2","process":"system/Common/ArrayPush","nodeIsSubProcess":true,"skipped":false,"processParameters":[{"name":"array","value":"$result"},{"name":"item","value":"$location.item"}],"nextNodes":["_A_3"]},{"skipped":false,"nodeIsSubProcess":false,"nextNodes":["location","_A_1"],"name":"_A_3","function":"$location.index++","meta":{"skipBreakpoint":true}},{"name":"_A_1","nodeIsSubProcess":false,"skipped":false,"function":"if($location.hasMore && !$location.break) return;$location.index=0","nextNodes":["Assign_1"],"meta":{"skipBreakpoint":true}},{"name":"Assign_1","nodeIsSubProcess":false,"skipped":true,"function":"$result=$get_locations.result","nextNodes":["_exit"]},{"name":"_exit","nextNodes":[],"nodeIsSubProcess":false,"skipped":false,"function":""}],"variables":[{"name":"result","isInput":false,"isOutput":true,"level":"INTERMEDIATE","type":"{\"type\": \"array\"}","value":"[]"},{"name":"cloud_services_array","isInput":false,"isOutput":true,"level":"INTERMEDIATE","type":"{\"type\": \"array\"}","value":"[]"}],"meta":{"layout":{"type":"sequence","nodes":[{"type":"action","node":"get_locations"},{"type":"foreach","list":"location","entry":"_A_2","increment":"_A_3","exit":"_A_1","body":{"type":"sequence","nodes":[{"type":"assign","node":"Assign_3"},{"type":"foreach","list":"cloud_services_list","entry":"_A_5","increment":"_A_6","exit":"_A_4","body":{"type":"sequence","nodes":[{"type":"action","node":"cloud_services"},{"type":"try","try":"_Try_1","exit":"_A_8","catchNode":"Try_1","tryNode":"_A_9","trySequence":{"type":"sequence","nodes":[{"type":"action","node":"ArrayPush_1"}]},"catchSequence":{"type":"sequence","nodes":[]}}]}},{"type":"assign","node":"Assign_2"},{"type":"action","node":"ArrayPush_2"}]}},{"type":"assign","node":"Assign_1"}]},"endNode":"_exit"}}],
  "meta" : {"version":3,"layout":"flat","workerGroup":"default"}
}